<?xml version="1.0" standalone="no"?>
<!DOCTYPE svg PUBLIC "-//W3C//DTD SVG 20010904//EN"
 "http://www.w3.org/TR/2001/REC-SVG-20010904/DTD/svg10.dtd">
<svg version="1.0" xmlns="http://www.w3.org/2000/svg"
 width="300.000000pt" height="300.000000pt" viewBox="0 0 300.000000 300.000000"
 preserveAspectRatio="xMidYMid meet">
<metadata>
Created by potrace 1.11, written by Peter Selinger 2001-2013
</metadata>
<g transform="translate(0.000000,300.000000) scale(0.100000,-0.100000)"
fill="#000000" stroke="none">
<path d="M1031 2444 c-250 -145 -458 -264 -463 -264 -4 0 -8 -4 -8 -10 0 -5
-5 -10 -11 -10 -5 0 -71 -36 -145 -80 -75 -44 -137 -80 -139 -80 -2 0 -56 -31
-121 -70 -64 -38 -121 -70 -125 -70 -30 0 10 -29 159 -115 92 -53 174 -100
182 -106 20 -12 353 -204 410 -237 25 -14 126 -72 225 -130 99 -58 253 -147
343 -199 l163 -94 282 157 c155 86 309 171 342 189 33 18 101 56 150 84 l90
50 5 -382 5 -382 27 -55 c14 -30 41 -70 59 -89 42 -44 137 -88 186 -87 l38 1
0 79 0 79 -45 19 c-56 24 -76 42 -97 87 -15 30 -17 83 -17 420 -1 238 3 392 9
404 6 10 109 78 229 151 121 73 221 137 223 142 3 8 -106 75 -134 82 -7 2 -13
8 -13 13 0 5 -4 9 -9 9 -5 0 -173 95 -373 211 -200 117 -379 221 -398 232 -19
10 -72 41 -118 68 -45 27 -84 49 -86 49 -2 0 -34 18 -71 41 -37 22 -83 49
-101 60 -79 45 -101 57 -134 77 -19 12 -42 22 -50 21 -8 0 -219 -119 -469
-265z"/>
<path d="M792 943 c3 -207 3 -208 33 -266 16 -32 45 -72 64 -89 26 -23 388
-208 407 -208 2 0 45 -20 96 -45 51 -25 99 -45 107 -45 13 0 269 137 462 248
107 62 205 147 233 201 14 26 16 61 14 220 l-3 189 -35 -18 c-19 -9 -120 -63
-225 -120 -104 -56 -233 -125 -285 -152 -52 -28 -109 -59 -126 -69 -35 -21 -5
-34 -289 121 -27 15 -99 53 -160 85 -60 32 -150 80 -199 107 -49 26 -91 48
-93 48 -3 0 -3 -93 -1 -207z"/>
</g>
</svg>
